<?xml version="1.0" encoding="UTF-8" standalone="no"?>
<svg
   class="svg-icon"
   style="overflow:hidden;fill:currentColor"
   viewBox="0 0 64 64"
   version="1.1"
   id="svg6"
   width="64"
   height="64"
   xmlns="http://www.w3.org/2000/svg"
   xmlns:svg="http://www.w3.org/2000/svg">
  <defs
     id="defs6" />
  <path
     id="path1"
     d="M 6.6666262,0 C 2.9919698,0 0,2.9919698 0,6.6666262 V 46.666626 a 6.6746669,6.6746669 0 0 0 6.6666262,6.666748 H 31.075928 l 3.676026,9.802613 A 1.3333333,1.3333333 0 0 0 36,64 H 57.333374 C 61.008034,64 64,61.008034 64,57.333374 v -40 c 0,-3.674659 -2.991966,-6.666748 -6.666626,-6.666748 H 32.602051 L 29.261352,0.9013672 A 1.3333333,1.3333333 0 0 0 28,0 Z m 0,2.6666261 H 27.047974 L 43.466675,50.666626 H 6.6666262 c -2.2053275,0 -4.0000001,-1.794674 -4.0000001,-4 V 6.6666262 c 0,-2.2053275 1.7946726,-4.0000001 4.0000001,-4.0000001 z M 18.484498,12.654785 c -1.803588,0 -3.516375,0.350352 -5.138307,1.051026 -1.608954,0.700674 -3.003804,1.693213 -4.1845697,2.977783 -1.1937413,1.297544 -2.134445,2.848147 -2.8221439,4.651732 -0.6876976,1.790613 -1.0314944,3.788927 -1.0314944,5.994752 0,2.2188 0.3243712,4.204002 0.9731456,5.955688 0.6487712,1.738711 1.5570624,3.224365 2.7248532,4.457032 1.1548142,1.20672 2.5496632,2.140986 4.1845702,2.802735 1.634906,0.648768 3.41252,0.973152 5.332885,0.973152 1.660857,0 3.120654,-0.181616 4.379273,-0.544928 1.258624,-0.350336 2.367941,-0.823904 3.328125,-1.420768 0.9472,-0.596864 1.667456,-1.284592 2.160522,-2.063111 0.506048,-0.791504 0.75904,-1.576576 0.75904,-2.355102 0,-0.376288 -0.03904,-0.707088 -0.1168,-0.99256 -0.0648,-0.285456 -0.188096,-0.558 -0.369744,-0.817504 -0.194624,-0.27248 -0.434752,-0.473632 -0.720208,-0.603392 -0.27248,-0.14272 -0.590304,-0.214112 -0.953616,-0.214112 -0.830432,0 -1.446768,0.25312 -1.848999,0.759152 -0.40224,0.506048 -0.603392,1.109392 -0.603392,1.810059 0,0.428192 0.01936,0.927744 0.0584,1.498656 0.05184,0.557936 0.09728,1.038064 0.13616,1.440304 -0.15568,0.14272 -0.38928,0.311344 -0.700688,0.505984 -0.298432,0.194624 -0.6812,0.395792 -1.14832,0.603392 -0.493072,0.220576 -1.076992,0.402192 -1.751708,0.544928 -0.67472,0.12976 -1.40784,0.194704 -2.199343,0.194704 -1.323488,0 -2.517187,-0.272544 -3.581175,-0.817504 -1.051023,-0.557952 -1.972303,-1.33647 -2.763806,-2.335579 -0.804478,-1.012085 -1.440231,-2.205779 -1.907349,-3.581178 -0.467115,-1.388372 -0.7526408,-2.893571 -0.8564447,-4.515502 0.5838947,-0.389264 1.1288467,-0.687776 1.6348877,-0.895392 0.506041,-0.2076 1.109505,-0.311408 1.81018,-0.311408 0.583895,0 1.109301,0.08432 1.576416,0.253056 0.480092,0.15568 0.953783,0.33744 1.4209,0.54504 0.363312,0.15568 0.817456,0.32432 1.362432,0.505984 0.557952,0.181664 1.180704,0.272464 1.868408,0.272464 0.921248,0 1.849091,-0.259424 2.783324,-0.778448 0.9472,-0.532 1.8555,-1.219712 2.724853,-2.06311 l -0.836912,-1.051024 c -0.350336,0.298432 -0.746096,0.570848 -1.187248,0.817376 -0.441168,0.233552 -0.92784,0.350336 -1.45984,0.350336 -0.726624,0 -1.297552,-0.07776 -1.712769,-0.23352 -0.415216,-0.15568 -0.888784,-0.343872 -1.420784,-0.564448 -0.480096,-0.207616 -0.979632,-0.395776 -1.498656,-0.564448 -0.506048,-0.168688 -1.096396,-0.252928 -1.771116,-0.252928 -0.45414,0 -0.908286,0.0712 -1.362427,0.213984 -0.454141,0.12976 -0.901853,0.311488 -1.343017,0.54504 -0.531994,0.285456 -0.973151,0.55144 -1.323487,0.797968 -0.350337,0.233568 -0.791493,0.531952 -1.3234861,0.895264 0.025936,-2.218776 0.2725011,-4.139151 0.7396161,-5.761084 0.480091,-1.621929 1.128837,-2.951955 1.946289,-3.989988 0.843404,-1.038032 1.790664,-1.803566 2.841675,-2.296632 1.063986,-0.493069 2.205845,-0.739624 3.425536,-0.739624 1.089936,0 2.063055,0.253112 2.919434,0.759155 0.856384,0.493066 1.595936,1.180781 2.21875,2.06311 0.557952,0.778528 1.044624,1.732219 1.45984,2.861085 0.415216,1.115888 0.726592,2.153952 0.934208,3.114136 h 1.595952 l -0.175181,-9.848389 h -1.557008 l -0.77856,1.323486 C 24.427291,14.023721 23.408771,13.56302 22.279907,13.199707 21.164018,12.836395 19.898821,12.654785 18.484498,12.654785 Z m 15.029907,0.678589 h 23.818969 c 2.205328,0 4,1.794672 4,4 v 40 c 0,2.205328 -1.794672,4 -4,4 H 36.925293 l -3.000976,-8 h 11.409057 a 1.3386667,1.3386667 0 0 0 1.261352,-1.76538 l -2.408203,-7.039429 c 0.905019,-0.710896 1.784735,-1.521648 2.624391,-2.399659 2.552089,2.688121 5.118126,5.059259 5.623779,5.521729 A 1.3173333,1.3173333 0 0 0 53.333374,48 1.3333333,1.3333333 0 0 0 54.234619,45.682618 c -1.243816,-1.139172 -3.532249,-3.32594 -5.654541,-5.567506 3.027188,-3.731955 5.281864,-8.05123 5.908325,-10.781738 h 2.844971 c 0.736384,0 1.333248,-0.596992 1.333248,-1.333376 0,-0.736384 -0.59688,-1.333376 -1.333248,-1.333376 H 48 v -1.333248 a 1.3333333,1.3333333 0 0 0 -2.666626,0 v 1.333248 h -6.666748 c -0.196288,0 -0.382,0.04352 -0.549808,0.11968 z m 5.473755,16 h 7.678466 5.079345 c -0.63619,2.109253 -2.439651,5.618384 -4.968382,8.807252 -1.376095,-1.56928 -2.48752,-3.01832 -2.876221,-3.975343 a 1.3333333,1.3333333 0 0 0 -2.469362,1.002688 c 0.534327,1.31512 1.945658,3.146455 3.584474,5.003907 -0.559923,0.587616 -1.145477,1.145376 -1.751099,1.664308 z"
     style="stroke-width:0.0625" />
  <text
     xml:space="preserve"
     style="font-style:normal;font-variant:normal;font-weight:normal;font-stretch:normal;font-size:96px;font-family:Georgia;-inkscape-font-specification:Georgia;white-space:pre;inline-size:14.7395;fill:#0057b8;stroke-width:3;stroke-linecap:round"
     x="190.12431"
     y="243.21097"
     id="text6" />
</svg>
