[
  {
    "gameID": "a-short-hike",
    "versions": [
      {
        "exe": "AShortHike.exe",
        "platforms": ["steam", "gog", "epic"],
        "gameTitle": "A Short Hike"
      }
    ],
    "localizations": [
      {
        "localizationID": "10078",
        "packages": [
          {
            "platforms": ["steam", "gog", "epic"],
            "source": "local",
            "type": "assembly",
            "uri": "D:\\repos\\Ukrainify\\UkrainifyService\\Publish\\packages\\Ukrainify.A_Short_Hike.dll"
          }
        ]
      }
    ]
  },
  {
    "gameID": "postal",
    "versions": [
      {
        "exe": "Postal Plus.exe",
        "gameTitle": "POSTAL",
        "platforms": ["steam"]
      },
      {
        "exe": "Postal.exe",
        "gameTitle": "Postal Classic and Uncut",
        "platforms": ["gog"]
      }
    ],
    "localizations": [
      {
        "localizationID": "10352",
        "packages": [
          {
            "platforms": ["steam", "gog"],
            "source": "local",
            "type": "assembly",
            "uri": "D:\\repos\\Ukrainify\\UkrainifyService\\Publish\\packages\\Ukrainify.Postal.dll"
          }
        ]
      }
    ]
  },
  {
    "gameID": "postal-brain-damaged",
    "versions": [
      {
        "exe": "POSTAL Brain Damaged.exe.exe",
        "gameTitle": "POSTAL Brain Damaged",
        "platforms": ["steam"]
      },
      {
        "exe": "POSTAL Brain Damaged.exe",
        "gameTitle": "POSTAL: Brain Damaged",
        "platforms": ["gog"]
      }
    ],
    "localizations": [
      {
        "localizationID": "10400",
        "packages": [
          {
            "platforms": ["steam"],
            "source": "local",
            "type": "assembly",
            "uri": "D:\\repos\\Ukrainify\\UkrainifyService\\Publish\\packages\\Ukrainify.POSTAL_Brain_Damaged.Steam.dll"
          },
          {
            "platforms": ["gog"],
            "source": "local",
            "type": "assembly",
            "uri": "D:\\repos\\Ukrainify\\UkrainifyService\\Publish\\packages\\Ukrainify.POSTAL_Brain_Damaged.Gog.dll"
          }
        ]
      }
    ]
  },
  {
    "gameID": "ruiner",
    "versions": [
      {
        "exe": "Ruiner.exe",
        "platforms": ["steam", "gog", "epic"],
        "gameTitle": "RUINER"
      }
    ],
    "localizations": [
      {
        "localizationID": "10170",
        "packages": [
          {
            "platforms": ["steam", "gog", "epic"],
            "source": "local",
            "type": "assembly",
            "uri": "D:\\repos\\Ukrainify\\UkrainifyService\\Publish\\packages\\Ukrainify.Ruiner.dll"
          }
        ]
      }
    ]
  },
  {
    "gameID": "thief-simulator",
    "versions": [
      {
        "exe": "thief.exe",
        "platforms": ["steam", "gog"],
        "gameTitle": "Thief Simulator"
      }
    ],
    "localizations": [
      {
        "localizationID": "10061",
        "packages": [
          {
            "platforms": ["steam", "gog"],
            "source": "local",
            "type": "assembly",
            "uri": "D:\\repos\\Ukrainify\\UkrainifyService\\Publish\\packages\\Ukrainify.Thief_Simulator.dll"
          }
        ]
      }
    ]
  },
  {
    "gameID": "thief-simulator-2",
    "versions": [
      {
        "exe": "Thief Simulator 2.exe",
        "platforms": ["steam"],
        "gameTitle": "Thief Simulator 2"
      }
    ],
    "localizations": [
      {
        "localizationID": "10134",
        "packages": [
          {
            "platforms": ["steam"],
            "source": "local",
            "type": "assembly",
            "uri": "D:\\repos\\Ukrainify\\UkrainifyService\\Publish\\packages\\Ukrainify.Thief_Simulator_2.dll"
          }
        ]
      }
    ]
  },
  {
    "gameID": "vampire-survivors",
    "versions": [
      {
        "exe": "VampireSurvivors.exe",
        "platforms": ["steam"],
        "gameTitle": "Vampire Survivors"
      }
    ],
    "localizations": [
      {
        "localizationID": "9341",
        "packages": [
          {
            "platforms": ["steam"],
            "source": "local",
            "type": "assembly",
            "uri": "D:\\repos\\Ukrainify\\UkrainifyService\\Publish\\packages\\Ukrainify.Vampire_Survivors.dll"
          }
        ]
      }
    ]
  },
  {
    "gameID": "quake-ii",
    "versions": [
      {
        "exe": "release\\quake2ex_steam.exe",
        "platforms": ["steam"],
        "gameTitle": "Quake 2"
      }
    ],
    "localizations": [
      {
        "localizationID": "9868",
        "packages": [
          {
            "platforms": ["steam"],
            "source": "local",
            "type": "archive",
            "uri": "D:\\repos\\Ukrainify\\UkrainifyService\\Publish\\packages\\Ukrainify.Quake_2.zip"
          }
        ]
      }
    ]
  }
]
